Modules/TransSWBin/simulation/qsim/TransSWBin.msim.vcd
$comment
	File created using the following command:
		vcd file TransSWBin.msim.vcd -direction
$end
$date
	Thu Oct 05 09:41:55 2023
$end
$version
	ModelSim Version 10.5b
$end
$timescale
	1ps
$end

$scope module TransSWBin_vlg_vec_tst $end
$var reg 8 ! SWIn [7:0] $end
$var wire 1 " NB_Face [6] $end
$var wire 1 # NB_Face [5] $end
$var wire 1 $ NB_Face [4] $end
$var wire 1 % NB_Face [3] $end
$var wire 1 & NB_Face [2] $end
$var wire 1 ' NB_Face [1] $end
$var wire 1 ( NB_Face [0] $end

$scope module i1 $end
$var wire 1 ) gnd $end
$var wire 1 * vcc $end
$var wire 1 + unknown $end
$var tri1 1 , devclrn $end
$var tri1 1 - devpor $end
$var tri1 1 . devoe $end
$var wire 1 / NB_Face[0]~output_o $end
$var wire 1 0 NB_Face[1]~output_o $end
$var wire 1 1 NB_Face[2]~output_o $end
$var wire 1 2 NB_Face[3]~output_o $end
$var wire 1 3 NB_Face[4]~output_o $end
$var wire 1 4 NB_Face[5]~output_o $end
$var wire 1 5 NB_Face[6]~output_o $end
$var wire 1 6 SWIn[4]~input_o $end
$var wire 1 7 SWIn[7]~input_o $end
$var wire 1 8 SWIn[2]~input_o $end
$var wire 1 9 SWIn[5]~input_o $end
$var wire 1 : WideOr2~1_combout $end
$var wire 1 ; SWIn[0]~input_o $end
$var wire 1 < SWIn[3]~input_o $end
$var wire 1 = SWIn[6]~input_o $end
$var wire 1 > SWIn[1]~input_o $end
$var wire 1 ? WideOr2~0_combout $end
$var wire 1 @ WideOr2~2_combout $end
$var wire 1 A NB_Face~0_combout $end
$var wire 1 B Decoder0~0_combout $end
$var wire 1 C WideOr1~2_combout $end
$var wire 1 D WideOr1~0_combout $end
$var wire 1 E WideOr1~1_combout $end
$var wire 1 F WideOr1~3_combout $end
$var wire 1 G WideOr0~1_combout $end
$var wire 1 H WideOr0~0_combout $end
$var wire 1 I WideOr0~2_combout $end
$var wire 1 J NB_Face~1_combout $end
$var wire 1 K NB_Face~2_combout $end
$var wire 1 L Decoder0~1_combout $end
$upscope $end
$upscope $end
$enddefinitions $end
#0
$dumpvars
b0 !
0(
0'
0&
0%
0$
0#
0"
0)
1*
x+
1,
1-
1.
0/
00
01
02
03
04
05
06
07
08
09
1:
0;
0<
0=
0>
0?
0@
1A
1B
0C
0D
0E
0F
0G
1H
0I
0J
0K
0L
$end
#10000
b1 !
1;
0H
1D
0B
1E
1F
11
1&
#20000
b11 !
b10 !
0;
1>
1?
1@
10
1'
#30000
b110 !
b100 !
0>
18
1H
0D
1B
0?
1G
0A
0:
0E
0B
1I
0@
00
12
1%
0'
0F
01
0&
#40000
b1100 !
b1000 !
08
1<
1:
1?
1@
10
1'
#50000
b11000 !
b10000 !
0<
16
1A
0?
1C
0:
1B
0@
00
0'
1F
11
1&
#60000
b110000 !
b100000 !
06
19
0G
1J
0I
02
0%
1K
13
1$
#70000
b1100000 !
b1000000 !
09
1=
0C
1:
1G
1D
0B
1?
1E
0F
1@
1I
12
10
01
0&
1'
1%
1F
11
1&
#80000
b11000000 !
b10000000 !
0=
17
0J
0G
1B
0?
0:
0K
0I
02
03
0$
0%
1L
0@
00
14
15
1"
1#
0'
#90000
b10000001 !
b10001001 !
b1001 !
1;
1<
07
0H
0B
1G
0A
1:
0L
04
05
0E
0"
0#
0F
01
0&
