Modules/Trans_7seg/simulation/qsim/Trans_7seg.msim.vcd
$comment
	File created using the following command:
		vcd file Trans_7seg.msim.vcd -direction
$end
$date
	Thu Oct 05 12:00:44 2023
$end
$version
	ModelSim Version 10.5b
$end
$timescale
	1ps
$end

$scope module Trans_7seg_vlg_vec_tst $end
$var reg 4 ! BinIn [3:0] $end
$var wire 1 " SegOut [0] $end
$var wire 1 # SegOut [1] $end
$var wire 1 $ SegOut [2] $end
$var wire 1 % SegOut [3] $end
$var wire 1 & SegOut [4] $end
$var wire 1 ' SegOut [5] $end
$var wire 1 ( SegOut [6] $end

$scope module i1 $end
$var wire 1 ) gnd $end
$var wire 1 * vcc $end
$var wire 1 + unknown $end
$var tri1 1 , devclrn $end
$var tri1 1 - devpor $end
$var tri1 1 . devoe $end
$var wire 1 / SegOut[6]~output_o $end
$var wire 1 0 SegOut[5]~output_o $end
$var wire 1 1 SegOut[4]~output_o $end
$var wire 1 2 SegOut[3]~output_o $end
$var wire 1 3 SegOut[2]~output_o $end
$var wire 1 4 SegOut[1]~output_o $end
$var wire 1 5 SegOut[0]~output_o $end
$var wire 1 6 BinIn[0]~input_o $end
$var wire 1 7 BinIn[1]~input_o $end
$var wire 1 8 BinIn[2]~input_o $end
$var wire 1 9 BinIn[3]~input_o $end
$var wire 1 : WideOr6~0_combout $end
$var wire 1 ; WideOr5~0_combout $end
$var wire 1 < WideOr4~0_combout $end
$var wire 1 = WideOr3~0_combout $end
$var wire 1 > WideOr2~0_combout $end
$var wire 1 ? WideOr1~0_combout $end
$var wire 1 @ WideOr0~0_combout $end
$upscope $end
$upscope $end
$enddefinitions $end
#0
$dumpvars
b0 !
1(
1'
1&
1%
1$
1#
1"
0)
1*
x+
1,
1-
1.
1/
10
11
12
13
14
15
06
07
08
09
0:
0;
0<
0=
1>
0?
0@
$end
#5000
b1 !
16
1?
0>
03
04
0#
0$
#10000
b11 !
b10 !
06
17
1@
1=
1<
1:
1>
13
0/
01
02
05
0"
0%
0&
0(
1$
#15000
b11 !
16
0<
0>
03
11
1&
0$
#20000
b111 !
b101 !
b100 !
06
07
18
0@
0=
1;
00
12
15
1"
1%
0'
#25000
b101 !
16
1@
0?
1=
02
14
05
0"
1#
0%
#30000
b111 !
b110 !
06
17
1<
01
0&
#35000
b111 !
16
1?
0=
0<
0;
0:
1/
10
11
12
04
0#
1%
1&
1'
1(
#40000
b1111 !
b1011 !
b1001 !
b1000 !
06
07
08
19
1=
1<
1;
1:
0/
00
01
02
0%
0&
0'
0(
#45000
b1001 !
16
0<
11
1&
#50000
b1011 !
b1010 !
06
17
1<
0:
1/
01
0&
1(
#55000
b1011 !
16
0<
0;
1:
0/
10
11
1&
1'
0(
#60000
b1111 !
b1101 !
b1100 !
06
07
18
0@
0?
0=
0:
1>
13
1/
12
14
15
1"
1#
1%
1(
1$
#65000
b1101 !
16
#70000
b1111 !
b1110 !
06
17
#75000
b1111 !
16
#80000
b111 !
b11 !
b1 !
b0 !
06
07
08
09
#85000
b1 !
16
1?
0>
03
04
0#
0$
#90000
b11 !
b10 !
06
17
1@
1=
1<
1:
1>
13
0/
01
02
05
0"
0%
0&
0(
1$
#95000
b11 !
16
0<
0>
03
11
1&
0$
