Modules/TransBinCPT/simulation/qsim/TransBinCPT.msim.vcd
$comment
	File created using the following command:
		vcd file TransBinCPT.msim.vcd -direction
$end
$date
	Thu Oct 05 09:37:44 2023
$end
$version
	ModelSim Version 10.5b
$end
$timescale
	1ps
$end

$scope module TransBinCPT_vlg_vec_tst $end
$var reg 7 ! NB_Face [6:0] $end
$var wire 1 " Max [6] $end
$var wire 1 # Max [5] $end
$var wire 1 $ Max [4] $end
$var wire 1 % Max [3] $end
$var wire 1 & Max [2] $end
$var wire 1 ' Max [1] $end
$var wire 1 ( Max [0] $end
$var wire 1 ) Min [6] $end
$var wire 1 * Min [5] $end
$var wire 1 + Min [4] $end
$var wire 1 , Min [3] $end
$var wire 1 - Min [2] $end
$var wire 1 . Min [1] $end
$var wire 1 / Min [0] $end

$scope module i1 $end
$var wire 1 0 gnd $end
$var wire 1 1 vcc $end
$var wire 1 2 unknown $end
$var tri1 1 3 devclrn $end
$var tri1 1 4 devpor $end
$var tri1 1 5 devoe $end
$var wire 1 6 Min[0]~output_o $end
$var wire 1 7 Min[1]~output_o $end
$var wire 1 8 Min[2]~output_o $end
$var wire 1 9 Min[3]~output_o $end
$var wire 1 : Min[4]~output_o $end
$var wire 1 ; Min[5]~output_o $end
$var wire 1 < Min[6]~output_o $end
$var wire 1 = Max[0]~output_o $end
$var wire 1 > Max[1]~output_o $end
$var wire 1 ? Max[2]~output_o $end
$var wire 1 @ Max[3]~output_o $end
$var wire 1 A Max[4]~output_o $end
$var wire 1 B Max[5]~output_o $end
$var wire 1 C Max[6]~output_o $end
$var wire 1 D NB_Face[1]~input_o $end
$var wire 1 E NB_Face[3]~input_o $end
$var wire 1 F NB_Face[5]~input_o $end
$var wire 1 G NB_Face[6]~input_o $end
$var wire 1 H Max[3]~9_combout $end
$var wire 1 I NB_Face[0]~input_o $end
$var wire 1 J NB_Face[4]~input_o $end
$var wire 1 K NB_Face[2]~input_o $end
$var wire 1 L Equal0~0_combout $end
$var wire 1 M Equal1~0_combout $end
$var wire 1 N Equal1~1_combout $end
$var wire 1 O always0~0_combout $end
$var wire 1 P Max[1]~4_combout $end
$var wire 1 Q Max[1]~14_combout $end
$var wire 1 R Max[2]~10_combout $end
$var wire 1 S WideOr0~0_combout $end
$var wire 1 T Max[3]~11_combout $end
$var wire 1 U Max~12_combout $end
$var wire 1 V Max~13_combout $end
$upscope $end
$upscope $end
$enddefinitions $end
#0
$dumpvars
b0 !
0(
1'
1&
0%
0$
0#
0"
1/
0.
0-
0,
0+
0*
0)
00
11
x2
13
14
15
16
07
08
09
0:
0;
0<
0=
1>
1?
0@
0A
0B
0C
0D
0E
0F
0G
0H
0I
0J
0K
0L
1M
1N
0O
1P
1Q
1R
0S
0T
0U
0V
$end
#10000
b100 !
1K
1U
0P
0M
0Q
0>
0'
#20000
b110 !
1D
0U
1S
1P
1M
1Q
1>
1'
#30000
b1110 !
b1010 !
b1000 !
0D
0K
1E
0S
0P
1H
1L
1T
0Q
0>
1@
1%
0'
0R
0?
0&
#40000
b1010 !
1D
1S
1O
06
1=
1(
0/
#50000
b1110 !
b1100 !
0D
1K
0S
0M
0L
0O
16
0=
0(
1/
1R
1?
1&
#60000
b11100 !
b10100 !
0E
1J
1U
0H
1S
1M
1V
0T
0@
1A
1$
0%
#70000
b10110 !
b11110 !
1D
1E
0S
1P
1H
1T
1Q
1>
1@
1%
1'
#80000
b1011110 !
b1111110 !
b1101110 !
b1101100 !
b1100100 !
0D
0E
0J
1F
1G
0P
0M
0H
0V
0A
0N
0$
0T
0@
1C
1B
1#
1"
0%
0R
1O
06
1=
0?
0&
1(
0/
#90000
b1100101 !
b1100001 !
b100001 !
b1 !
b1001 !
1I
0K
1E
0F
0G
0U
1S
1M
1N
1H
0C
0B
0#
0"
1T
1R
0O
16
0=
1?
1@
1%
1&
0(
1/
0T
0@
0%
