Modules/MemoireDe/simulation/qsim/MemoireDe.msim.vcd
$comment
	File created using the following command:
		vcd file MemoireDe.msim.vcd -direction
$end
$date
	Thu Oct 05 11:03:58 2023
$end
$version
	ModelSim Version 10.5b
$end
$timescale
	1ps
$end

$scope module MemoireDe_vlg_vec_tst $end
$var reg 1 ! CAP $end
$var reg 7 " CMP [6:0] $end
$var wire 1 # VAL [6] $end
$var wire 1 $ VAL [5] $end
$var wire 1 % VAL [4] $end
$var wire 1 & VAL [3] $end
$var wire 1 ' VAL [2] $end
$var wire 1 ( VAL [1] $end
$var wire 1 ) VAL [0] $end

$scope module i1 $end
$var wire 1 * gnd $end
$var wire 1 + vcc $end
$var wire 1 , unknown $end
$var tri1 1 - devclrn $end
$var tri1 1 . devpor $end
$var tri1 1 / devoe $end
$var wire 1 0 VAL[0]~output_o $end
$var wire 1 1 VAL[1]~output_o $end
$var wire 1 2 VAL[2]~output_o $end
$var wire 1 3 VAL[3]~output_o $end
$var wire 1 4 VAL[4]~output_o $end
$var wire 1 5 VAL[5]~output_o $end
$var wire 1 6 VAL[6]~output_o $end
$var wire 1 7 CAP~input_o $end
$var wire 1 8 CMP[0]~input_o $end
$var wire 1 9 VAL[0]~reg0_q $end
$var wire 1 : CMP[1]~input_o $end
$var wire 1 ; VAL[1]~reg0_q $end
$var wire 1 < CMP[2]~input_o $end
$var wire 1 = VAL[2]~reg0_q $end
$var wire 1 > CMP[3]~input_o $end
$var wire 1 ? VAL[3]~reg0_q $end
$var wire 1 @ CMP[4]~input_o $end
$var wire 1 A VAL[4]~reg0_q $end
$var wire 1 B CMP[5]~input_o $end
$var wire 1 C VAL[5]~reg0_q $end
$var wire 1 D CMP[6]~input_o $end
$var wire 1 E VAL[6]~reg0_q $end
$upscope $end
$upscope $end
$enddefinitions $end
#0
$dumpvars
0!
b0 "
0)
0(
0'
0&
0%
0$
0#
0*
1+
x,
1-
1.
1/
00
01
02
03
04
05
06
07
08
09
0:
0;
0<
0=
0>
0?
0@
0A
0B
0C
0D
0E
$end
#3000
1!
17
#5000
b1 "
18
#6000
0!
07
#9000
1!
17
19
10
1)
#10000
b11 "
b10 "
08
1:
#12000
0!
07
#15000
b11 "
1!
18
17
1;
11
1(
#18000
0!
07
#20000
b111 "
b101 "
b100 "
08
0:
1<
#21000
1!
17
1=
0;
09
00
01
12
1'
0(
0)
#24000
0!
07
#25000
b101 "
18
#27000
1!
17
19
10
1)
#30000
b111 "
b110 "
0!
08
1:
07
#33000
1!
17
1;
09
00
11
1(
0)
#35000
b111 "
18
#36000
0!
07
#39000
1!
17
19
10
1)
#40000
b1111 "
b1011 "
b1001 "
b1000 "
08
0:
0<
1>
#42000
0!
07
#45000
b1001 "
1!
18
17
1?
0=
0;
01
02
13
1&
0'
0(
#48000
0!
07
#50000
b1011 "
b1010 "
08
1:
#51000
1!
17
1;
09
00
11
1(
0)
#54000
0!
07
#55000
b1011 "
18
#57000
1!
17
19
10
1)
#60000
b1111 "
b1101 "
b1100 "
0!
08
0:
1<
07
#63000
1!
17
1=
0;
09
00
01
12
1'
0(
0)
#65000
b1101 "
18
#66000
0!
07
#69000
1!
17
19
10
1)
#70000
b1111 "
b1110 "
08
1:
#72000
0!
07
#75000
b1111 "
1!
18
17
1;
11
1(
#78000
0!
07
#80000
b11111 "
b10111 "
b10011 "
b10001 "
b10000 "
08
0:
0<
0>
1@
#81000
1!
17
1A
0?
0=
0;
09
00
01
02
03
14
1%
0&
0'
0(
0)
#84000
0!
07
#85000
b10001 "
18
#87000
1!
17
19
10
1)
#90000
b10011 "
b10010 "
0!
08
1:
07
#93000
1!
17
1;
09
00
11
1(
0)
#95000
b10011 "
18
#96000
0!
07
#99000
1!
17
19
10
1)
