CPTAleat/simulation/qsim/CPTAleat.msim.vcd
$comment
	File created using the following command:
		vcd file CPTAleat.msim.vcd -direction
$end
$date
	Thu Oct 05 10:47:37 2023
$end
$version
	ModelSim Version 10.5b
$end
$timescale
	1ps
$end

$scope module CPTAleat_vlg_vec_tst $end
$var reg 1 ! Clk $end
$var reg 7 " Max [6:0] $end
$var reg 7 # Min [6:0] $end
$var wire 1 $ CMP [6] $end
$var wire 1 % CMP [5] $end
$var wire 1 & CMP [4] $end
$var wire 1 ' CMP [3] $end
$var wire 1 ( CMP [2] $end
$var wire 1 ) CMP [1] $end
$var wire 1 * CMP [0] $end

$scope module i1 $end
$var wire 1 + gnd $end
$var wire 1 , vcc $end
$var wire 1 - unknown $end
$var tri1 1 . devclrn $end
$var tri1 1 / devpor $end
$var tri1 1 0 devoe $end
$var wire 1 1 CMP[0]~output_o $end
$var wire 1 2 CMP[1]~output_o $end
$var wire 1 3 CMP[2]~output_o $end
$var wire 1 4 CMP[3]~output_o $end
$var wire 1 5 CMP[4]~output_o $end
$var wire 1 6 CMP[5]~output_o $end
$var wire 1 7 CMP[6]~output_o $end
$var wire 1 8 Clk~input_o $end
$var wire 1 9 CMP[0]~7_combout $end
$var wire 1 : Min[0]~input_o $end
$var wire 1 ; Max[6]~input_o $end
$var wire 1 < Max[5]~input_o $end
$var wire 1 = Max[4]~input_o $end
$var wire 1 > Max[3]~input_o $end
$var wire 1 ? Max[2]~input_o $end
$var wire 1 @ Max[1]~input_o $end
$var wire 1 A Max[0]~input_o $end
$var wire 1 B Add1~1 $end
$var wire 1 C Add1~3 $end
$var wire 1 D Add1~5 $end
$var wire 1 E Add1~7 $end
$var wire 1 F Add1~9 $end
$var wire 1 G Add1~11 $end
$var wire 1 H Add1~12_combout $end
$var wire 1 I CMP[0]~8 $end
$var wire 1 J CMP[1]~9_combout $end
$var wire 1 K Min[1]~input_o $end
$var wire 1 L CMP[1]~reg0_q $end
$var wire 1 M CMP[1]~10 $end
$var wire 1 N CMP[2]~11_combout $end
$var wire 1 O Min[2]~input_o $end
$var wire 1 P CMP[2]~reg0_q $end
$var wire 1 Q CMP[2]~12 $end
$var wire 1 R CMP[3]~13_combout $end
$var wire 1 S Min[3]~input_o $end
$var wire 1 T CMP[3]~reg0_q $end
$var wire 1 U CMP[3]~14 $end
$var wire 1 V CMP[4]~15_combout $end
$var wire 1 W Min[4]~input_o $end
$var wire 1 X CMP[4]~reg0_q $end
$var wire 1 Y CMP[4]~16 $end
$var wire 1 Z CMP[5]~17_combout $end
$var wire 1 [ Min[5]~input_o $end
$var wire 1 \ CMP[5]~reg0_q $end
$var wire 1 ] CMP[5]~18 $end
$var wire 1 ^ CMP[6]~19_combout $end
$var wire 1 _ Min[6]~input_o $end
$var wire 1 ` CMP[6]~reg0_q $end
$var wire 1 a Add1~10_combout $end
$var wire 1 b Add1~8_combout $end
$var wire 1 c Add1~6_combout $end
$var wire 1 d Add1~4_combout $end
$var wire 1 e Add1~2_combout $end
$var wire 1 f Add1~0_combout $end
$var wire 1 g LessThan0~1_cout $end
$var wire 1 h LessThan0~3_cout $end
$var wire 1 i LessThan0~5_cout $end
$var wire 1 j LessThan0~7_cout $end
$var wire 1 k LessThan0~9_cout $end
$var wire 1 l LessThan0~11_cout $end
$var wire 1 m LessThan0~12_combout $end
$var wire 1 n Add1~13 $end
$var wire 1 o Add1~14_combout $end
$var wire 1 p LessThan0~14_combout $end
$var wire 1 q CMP[0]~reg0_q $end
$upscope $end
$upscope $end
$enddefinitions $end
#0
$dumpvars
0!
b1001 "
b0 #
0*
0)
0(
0'
0&
0%
0$
0+
1,
x-
1.
1/
10
01
02
03
04
05
06
07
08
19
0:
0;
0<
0=
1>
0?
0@
1A
1B
0C
1D
0E
1F
0G
0H
0I
0J
0K
0L
1M
0N
0O
0P
0Q
0R
0S
0T
1U
0V
0W
0X
0Y
0Z
0[
0\
1]
0^
0_
0`
0a
0b
1c
0d
0e
0f
0g
1h
0i
1j
0k
1l
0m
1n
0o
0p
0q
$end
#500
1!
18
#1000
0!
08
1q
11
1g
1I
1*
09
0h
1J
1i
#1500
1!
18
#2000
0!
08
1L
0q
01
12
0M
0g
0I
1)
0*
0J
19
1M
1N
1J
0N
#2500
1!
18
#3000
0!
08
1q
11
1g
1I
1*
09
0M
0J
1N
#3500
1!
18
#4000
0!
08
0L
1P
0q
01
13
02
1M
1Q
0g
0I
0)
1(
0*
1J
0N
19
0Q
1h
1N
1R
0J
0R
#4500
1!
18
#5000
0!
08
1q
11
1g
1I
1*
09
0h
1J
#5500
1!
18
#6000
0!
08
1L
0q
01
12
0M
0g
0I
1)
0*
0J
19
1Q
1M
0N
1J
0Q
1R
1N
0R
#6500
1!
18
#7000
0!
08
1q
11
1g
1I
1*
09
0M
0J
1Q
0N
1R
#7500
1!
18
#8000
0!
08
0L
0P
1T
0q
01
14
03
02
1M
0Q
0j
0U
0g
0I
0)
0(
1'
0*
1J
1N
0R
19
1U
1k
1h
0N
1R
1V
0J
0l
0i
0V
1m
1j
1p
0k
1l
0m
0p
#8500
1!
18
#9000
0!
08
1q
11
1g
1I
1*
09
0h
1J
1i
0j
1k
0l
1m
1p
#9500
1!
18
#10000
0!
08
0T
0q
01
04
1j
0g
0I
0'
0*
0R
19
0k
1h
0J
1l
0i
0m
0p
#10500
1!
18
#11000
0!
08
1q
11
1g
1I
1*
09
0h
1J
1i
#11500
1!
18
#12000
0!
08
1L
0q
01
12
0M
0g
0I
1)
0*
0J
19
1M
1N
1J
0N
#12500
1!
18
#13000
0!
08
1q
11
1g
1I
1*
09
0M
0J
1N
#13500
1!
18
#14000
0!
08
0L
1P
0q
01
13
02
1M
1Q
0g
0I
0)
1(
0*
1J
0N
19
0Q
1h
1N
1R
0J
0R
#14500
1!
18
#15000
0!
08
1q
11
1g
1I
1*
09
0h
1J
#15500
1!
18
#16000
0!
08
1L
0q
01
12
0M
0g
0I
1)
0*
0J
19
1Q
1M
0N
1J
0Q
1R
1N
0R
#16500
1!
18
#17000
0!
08
1q
11
1g
1I
1*
09
0M
0J
1Q
0N
1R
#17500
1!
18
#18000
0!
08
0L
0P
1T
0q
01
14
03
02
1M
0Q
0j
0U
0g
0I
0)
0(
1'
0*
1J
1N
0R
19
1U
1k
1h
0N
1R
1V
0J
0l
0i
0V
1m
1j
1p
0k
1l
0m
0p
#18500
1!
18
#19000
0!
08
1q
11
1g
1I
1*
09
0h
1J
1i
0j
1k
0l
1m
1p
#19500
1!
18
#20000
0!
08
0T
0q
01
04
1j
0g
0I
0'
0*
0R
19
0k
1h
0J
1l
0i
0m
0p
#20500
1!
18
#21000
0!
08
1q
11
1g
1I
1*
09
0h
1J
1i
#21500
1!
18
#22000
0!
08
1L
0q
01
12
0M
0g
0I
1)
0*
0J
19
1M
1N
1J
0N
#22500
1!
18
#23000
0!
08
1q
11
1g
1I
1*
09
0M
0J
1N
#23500
1!
18
#24000
0!
08
0L
1P
0q
01
13
02
1M
1Q
0g
0I
0)
1(
0*
1J
0N
19
0Q
1h
1N
1R
0J
0R
#24500
1!
18
#25000
0!
08
1q
11
1g
1I
1*
09
0h
1J
#25500
1!
18
#26000
0!
08
1L
0q
01
12
0M
0g
0I
1)
0*
0J
19
1Q
1M
0N
1J
0Q
1R
1N
0R
#26500
1!
18
#27000
0!
08
1q
11
1g
1I
1*
09
0M
0J
1Q
0N
1R
#27500
1!
18
#28000
0!
08
0L
0P
1T
0q
01
14
03
02
1M
0Q
0j
0U
0g
0I
0)
0(
1'
0*
1J
1N
0R
19
1U
1k
1h
0N
1R
1V
0J
0l
0i
0V
1m
1j
1p
0k
1l
0m
0p
#28500
1!
18
#29000
0!
08
1q
11
1g
1I
1*
09
0h
1J
1i
0j
1k
0l
1m
1p
#29500
1!
18
#30000
0!
08
0T
0q
01
04
1j
0g
0I
0'
0*
0R
19
0k
1h
0J
1l
0i
0m
0p
#30500
1!
18
#31000
0!
08
1q
11
1g
1I
1*
09
0h
1J
1i
#31500
1!
18
#32000
0!
08
1L
0q
01
12
0M
0g
0I
1)
0*
0J
19
1M
1N
1J
0N
#32500
1!
18
#33000
0!
08
1q
11
1g
1I
1*
09
0M
0J
1N
#33500
1!
18
#34000
0!
08
0L
1P
0q
01
13
02
1M
1Q
0g
0I
0)
1(
0*
1J
0N
19
0Q
1h
1N
1R
0J
0R
#34500
1!
18
#35000
0!
08
1q
11
1g
1I
1*
09
0h
1J
#35500
1!
18
#36000
0!
08
1L
0q
01
12
0M
0g
0I
1)
0*
0J
19
1Q
1M
0N
1J
0Q
1R
1N
0R
#36500
1!
18
#37000
0!
08
1q
11
1g
1I
1*
09
0M
0J
1Q
0N
1R
#37500
1!
18
#38000
0!
08
0L
0P
1T
0q
01
14
03
02
1M
0Q
0j
0U
0g
0I
0)
0(
1'
0*
1J
1N
0R
19
1U
1k
1h
0N
1R
1V
0J
0l
0i
0V
1m
1j
1p
0k
1l
0m
0p
#38500
1!
18
#39000
0!
08
1q
11
1g
1I
1*
09
0h
1J
1i
0j
1k
0l
1m
1p
#39500
1!
18
#40000
0!
08
0T
0q
01
04
1j
0g
0I
0'
0*
0R
19
0k
1h
0J
1l
0i
0m
0p
#40500
1!
18
#41000
0!
08
1q
11
1g
1I
1*
09
0h
1J
1i
#41500
1!
18
#42000
0!
08
1L
0q
01
12
0M
0g
0I
1)
0*
0J
19
1M
1N
1J
0N
#42500
1!
18
#43000
0!
08
1q
11
1g
1I
1*
09
0M
0J
1N
#43500
1!
18
#44000
0!
08
0L
1P
0q
01
13
02
1M
1Q
0g
0I
0)
1(
0*
1J
0N
19
0Q
1h
1N
1R
0J
0R
#44500
1!
18
#45000
0!
08
1q
11
1g
1I
1*
09
0h
1J
#45500
1!
18
#46000
0!
08
1L
0q
01
12
0M
0g
0I
1)
0*
0J
19
1Q
1M
0N
1J
0Q
1R
1N
0R
#46500
1!
18
#47000
0!
08
1q
11
1g
1I
1*
09
0M
0J
1Q
0N
1R
#47500
1!
18
#48000
0!
08
0L
0P
1T
0q
01
14
03
02
1M
0Q
0j
0U
0g
0I
0)
0(
1'
0*
1J
1N
0R
19
1U
1k
1h
0N
1R
1V
0J
0l
0i
0V
1m
1j
1p
0k
1l
0m
0p
#48500
1!
18
#49000
0!
08
1q
11
1g
1I
1*
09
0h
1J
1i
0j
1k
0l
1m
1p
#49500
1!
18
#50000
b1001001 "
b1101001 "
b1100001 "
b1100011 "
0!
1@
0>
1<
1;
08
1e
0c
1a
1H
1h
1l
0m
0i
0p
0T
0q
01
04
1j
0g
0I
0'
0*
0R
19
0k
0J
#50500
1!
18
#51000
0!
08
1q
11
1g
1I
1*
09
1J
#51500
1!
18
#52000
0!
08
1L
0q
01
12
0h
0M
0g
0I
1)
0*
0J
19
1i
1h
1M
1N
1J
0j
0i
0N
1k
1j
0k
#52500
1!
18
#53000
0!
08
1q
11
1g
1I
1*
09
0h
0M
0J
1i
1N
0j
1k
#53500
1!
18
#54000
0!
08
0L
1P
0q
01
13
02
1h
1M
1Q
0g
0I
0)
1(
0*
1J
0N
19
0Q
1N
1R
0J
0R
#54500
1!
18
#55000
0!
08
1q
11
1g
1I
1*
09
1J
#55500
1!
18
#56000
0!
08
1L
0q
01
12
0h
0M
0g
0I
1)
0*
0J
19
1Q
1h
1M
0N
1J
0Q
1R
1N
0R
#56500
1!
18
#57000
0!
08
1q
11
1g
1I
1*
09
0h
0M
0J
1Q
0N
1R
#57500
1!
18
#58000
0!
08
0L
0P
1T
0q
01
14
03
02
1h
1M
0Q
0U
0g
0I
0)
0(
1'
0*
1J
1N
0R
19
0i
1U
0N
1R
1V
0J
0V
#58500
1!
18
#59000
0!
08
1q
11
1g
1I
1*
09
1J
#59500
1!
18
#60000
0!
08
1L
0q
01
12
0h
0M
0g
0I
1)
0*
0J
19
1i
1h
1M
1N
1J
0i
0N
#60500
1!
18
#61000
0!
08
1q
11
1g
1I
1*
09
0h
0M
0J
1i
1N
#61500
1!
18
#62000
0!
08
0L
1P
0q
01
13
02
1h
1M
1Q
0g
0I
0)
1(
0*
1J
0N
19
0Q
0U
1N
0R
0J
1U
1R
1V
0V
#62500
1!
18
#63000
0!
08
1q
11
1g
1I
1*
09
1J
#63500
1!
18
#64000
0!
08
1L
0q
01
12
0h
0M
0g
0I
1)
0*
0J
19
1Q
1h
1M
0N
1J
0U
0Q
0R
1N
1U
1V
1R
0V
#64500
1!
18
#65000
0!
08
1q
11
1g
1I
1*
09
0h
0M
0J
1Q
0N
0U
0R
1V
#65500
1!
18
#66000
0!
08
0L
0P
0T
1X
0q
01
15
04
03
02
1h
1M
0Q
1U
1Y
0g
0I
0)
0(
0'
1&
0*
1J
1N
1R
0V
19
0i
0Y
0N
0R
1V
1Z
0J
1j
0Z
#66500
1!
18
#67000
0!
08
1q
11
1g
1I
1*
09
1J
#67500
1!
18
#68000
0!
08
1L
0q
01
12
0h
0M
0g
0I
1)
0*
0J
19
1i
1h
1M
1N
1J
0j
0i
0N
1j
#68500
1!
18
#69000
0!
08
1q
11
1g
1I
1*
09
0h
0M
0J
1i
1N
0j
#69500
1!
18
#70000
0!
08
0L
1P
0q
01
13
02
1h
1M
1Q
0g
0I
0)
1(
0*
1J
0N
19
0Q
1N
1R
0J
0R
#70500
1!
18
#71000
0!
08
1q
11
1g
1I
1*
09
1J
#71500
1!
18
#72000
0!
08
1L
0q
01
12
0h
0M
0g
0I
1)
0*
0J
19
1Q
1h
1M
0N
1J
0Q
1R
1N
0R
#72500
1!
18
#73000
0!
08
1q
11
1g
1I
1*
09
0h
0M
0J
1Q
0N
1R
#73500
1!
18
#74000
0!
08
0L
0P
1T
0q
01
14
03
02
1h
1M
0Q
0U
0g
0I
0)
0(
1'
0*
1J
1N
0R
19
0i
1U
1Y
0N
1R
0V
0J
0Y
1V
1Z
0Z
#74500
1!
18
#75000
0!
08
1q
11
1g
1I
1*
09
1J
#75500
1!
18
#76000
0!
08
1L
0q
01
12
0h
0M
0g
0I
1)
0*
0J
19
1i
1h
1M
1N
1J
0i
0N
#76500
1!
18
#77000
0!
08
1q
11
1g
1I
1*
09
0h
0M
0J
1i
1N
#77500
1!
18
#78000
0!
08
0L
1P
0q
01
13
02
1h
1M
1Q
0g
0I
0)
1(
0*
1J
0N
19
0Q
0U
1N
0R
0J
1U
1Y
1R
0V
0Y
1V
1Z
0Z
#78500
1!
18
#79000
0!
08
1q
11
1g
1I
1*
09
1J
#79500
1!
18
#80000
0!
08
1L
0q
01
12
0h
0M
0g
0I
1)
0*
0J
19
1Q
1h
1M
0N
1J
0U
0Q
0R
1N
1Y
1U
0V
1R
0Y
1Z
1V
0Z
#80500
1!
18
#81000
0!
08
1q
11
1g
1I
1*
09
0h
0M
0J
1Q
0N
0U
0R
1Y
0V
1Z
#81500
1!
18
#82000
0!
08
0L
0P
0T
0X
1\
0q
01
16
05
04
03
02
1h
1M
0Q
1U
0Y
0l
0]
0g
0I
0)
0(
0'
0&
1%
0*
1J
1N
1R
1V
0Z
19
0i
1]
0N
0R
0V
1Z
1^
0J
1j
0^
0k
1l
#82500
1!
18
#83000
0!
08
1q
11
1g
1I
1*
09
1J
#83500
1!
18
#84000
0!
08
1L
0q
01
12
0h
0M
0g
0I
1)
0*
0J
19
1i
1h
1M
1N
1J
0j
0i
0N
1k
1j
0l
0k
1l
#84500
1!
18
#85000
0!
08
1q
11
1g
1I
1*
09
0h
0M
0J
1i
1N
0j
1k
0l
#85500
1!
18
#86000
0!
08
0L
1P
0q
01
13
02
1h
1M
1Q
0g
0I
0)
1(
0*
1J
0N
19
0Q
1N
1R
0J
0R
#86500
1!
18
#87000
0!
08
1q
11
1g
1I
1*
09
1J
#87500
1!
18
#88000
0!
08
1L
0q
01
12
0h
0M
0g
0I
1)
0*
0J
19
1Q
1h
1M
0N
1J
0Q
1R
1N
0R
#88500
1!
18
#89000
0!
08
1q
11
1g
1I
1*
09
0h
0M
0J
1Q
0N
1R
#89500
1!
18
#90000
0!
08
0L
0P
1T
0q
01
14
03
02
1h
1M
0Q
0U
0g
0I
0)
0(
1'
0*
1J
1N
0R
19
0i
1U
0N
1R
1V
0J
0V
#90500
1!
18
#91000
0!
08
1q
11
1g
1I
1*
09
1J
#91500
1!
18
#92000
0!
08
1L
0q
01
12
0h
0M
0g
0I
1)
0*
0J
19
1i
1h
1M
1N
1J
0i
0N
#92500
1!
18
#93000
0!
08
1q
11
1g
1I
1*
09
0h
0M
0J
1i
1N
#93500
1!
18
#94000
0!
08
0L
1P
0q
01
13
02
1h
1M
1Q
0g
0I
0)
1(
0*
1J
0N
19
0Q
0U
1N
0R
0J
1U
1R
1V
0V
#94500
1!
18
#95000
0!
08
1q
11
1g
1I
1*
09
1J
#95500
1!
18
#96000
0!
08
1L
0q
01
12
0h
0M
0g
0I
1)
0*
0J
19
1Q
1h
1M
0N
1J
0U
0Q
0R
1N
1U
1V
1R
0V
#96500
1!
18
#97000
0!
08
1q
11
1g
1I
1*
09
0h
0M
0J
1Q
0N
0U
0R
1V
#97500
1!
18
#98000
0!
08
0L
0P
0T
1X
0q
01
15
04
03
02
1h
1M
0Q
1U
1Y
0g
0I
0)
0(
0'
1&
0*
1J
1N
1R
0V
19
0i
0Y
0]
0N
0R
1V
0Z
0J
1j
1]
1Z
1^
0^
#98500
1!
18
#99000
0!
08
1q
11
1g
1I
1*
09
1J
#99500
1!
18
